%YAML 1.1
%TAG !u! tag:unity3d.com,2011:
--- !u!114 &11400000
MonoBehaviour:
  m_ObjectHideFlags: 0
  m_CorrespondingSourceObject: {fileID: 0}
  m_PrefabInstance: {fileID: 0}
  m_PrefabAsset: {fileID: 0}
  m_GameObject: {fileID: 0}
  m_Enabled: 1
  m_EditorHideFlags: 0
  m_Script: {fileID: 11500000, guid: cb64961db299fc24e9b51f0577af154c, type: 3}
  m_Name: EventContent
  m_EditorClassIdentifier: 
  m_eventType: 1
  m_mainObject: {fileID: 958723914650085807, guid: 54552f83200ea0048b6aa75d2ccf40f4, type: 3}
  m_firstObject: {fileID: 5354060520674332279, guid: 34e089a1e9bc77547a61c5e87fc7148a, type: 3}
  m_secondObject: {fileID: 4495965481970373448, guid: 1f93d10ab07ef0149af94206b7188f40, type: 3}
  m_firstSprite: {fileID: 21300000, guid: 90cb9d0c613cfa943a7c90de7968b458, type: 3}
  m_secondSprite: {fileID: 3637710582540449271, guid: d751ee3c88101764d975b767e810f720, type: 3}
  m_firstAnimation: {fileID: 7400000, guid: 3d9f9935b3c488349a72afb9f470e8a6, type: 2}
  m_secondAnimation: {fileID: 7400000, guid: 02e6fefdec779af40845c2eae009a373, type: 2}
  m_isFirstWin: 1
