%YAML 1.1
%TAG !u! tag:unity3d.com,2011:
--- !u!114 &11400000
MonoBehaviour:
  m_ObjectHideFlags: 0
  m_CorrespondingSourceObject: {fileID: 0}
  m_PrefabInstance: {fileID: 0}
  m_PrefabAsset: {fileID: 0}
  m_GameObject: {fileID: 0}
  m_Enabled: 1
  m_EditorHideFlags: 0
  m_Script: {fileID: 11500000, guid: cb64961db299fc24e9b51f0577af154c, type: 3}
  m_Name: EventContent 2
  m_EditorClassIdentifier: 
  m_eventType: 102
  m_mainObject: {fileID: 6585010911008249757, guid: 742057799ebf9f84da9efb240b2a0797, type: 3}
  m_firstObject: {fileID: 0}
  m_secondObject: {fileID: 0}
  m_firstSprite: {fileID: 21300000, guid: a70a57505783491468467adca0438377, type: 3}
  m_secondSprite: {fileID: 21300000, guid: 0d519953a857be64c9896b3a2118286a, type: 3}
  m_firstAnimation: {fileID: 0}
  m_secondAnimation: {fileID: 7400000, guid: 427a04d4c318bb44180e404dff8f9b96, type: 2}
  m_isFirstWin: 1
