%YAML 1.1
%TAG !u! tag:unity3d.com,2011:
--- !u!114 &11400000
MonoBehaviour:
  m_ObjectHideFlags: 0
  m_CorrespondingSourceObject: {fileID: 0}
  m_PrefabInstance: {fileID: 0}
  m_PrefabAsset: {fileID: 0}
  m_GameObject: {fileID: 0}
  m_Enabled: 1
  m_EditorHideFlags: 0
  m_Script: {fileID: 11500000, guid: cb64961db299fc24e9b51f0577af154c, type: 3}
  m_Name: EventContent 1
  m_EditorClassIdentifier: 
  m_eventType: 101
  m_mainObject: {fileID: 958723914650085807, guid: 54552f83200ea0048b6aa75d2ccf40f4, type: 3}
  m_firstObject: {fileID: 8116338022196764937, guid: dffdd711d796b59489dc53384c2a9faf, type: 3}
  m_secondObject: {fileID: 4495965481970373448, guid: dfd253eb21fdf014ebec25b3e01ed0e8, type: 3}
  m_firstSprite: {fileID: 21300000, guid: cd86f777819c5f442a2bca706c5f38f9, type: 3}
  m_secondSprite: {fileID: 3637710582540449271, guid: d751ee3c88101764d975b767e810f720, type: 3}
  m_firstAnimation: {fileID: 7400000, guid: 5f3a89602c09cbb4690f8fc27900a8ae, type: 2}
  m_secondAnimation: {fileID: 7400000, guid: 0541c12700ba4a4469fe19d98458083a, type: 2}
  m_isFirstWin: 0
